{
  "project_info": {
    "project_number": "106831908699",
    "firebase_url": "https://gskdroidev-weather-report.firebaseio.com",
    "project_id": "gskdroidev-weather-report",
    "storage_bucket": "gskdroidev-weather-report.appspot.com"
  },
  "client": [
    {
      "client_info": {
        "mobilesdk_app_id": "1:106831908699:android:56d2f6bdda807b5a",
        "android_client_info": {
          "package_name": "com.gskdroidev.weather"
        }
      },
      "oauth_client": [
        {
          "client_id": "106831908699-tksovp9317c6c6raljfdn0fc0d69fqlv.apps.googleusercontent.com",
          "client_type": 1,
          "android_info": {
            "package_name": "com.gskdroidev.weather",
            "certificate_hash": "6fd7aede2159f7335b559333084e2352aff17870"
          }
        },
        {
          "client_id": "106831908699-lceckbohocm47k13g875e09mllar0kss.apps.googleusercontent.com",
          "client_type": 3
        }
      ],
      "api_key": [
        {
          "current_key": "AIzaSyDw8PGi3eO5O1HMZy5VvKOJ18Z9cH8oTsQ"
        }
      ],
      "services": {
        "analytics_service": {
          "status": 1
        },
        "appinvite_service": {
          "status": 2,
          "other_platform_oauth_client": [
            {
              "client_id": "106831908699-lceckbohocm47k13g875e09mllar0kss.apps.googleusercontent.com",
              "client_type": 3
            }
          ]
        },
        "ads_service": {
          "status": 2
        }
      }
    }
  ],
  "configuration_version": "1"
}